{
	"orderID" : 1,
	"userID" : 1,
	"transaction date": "05/23/2023",
	"status" : "ordered",
	"total"	: 100
}

{
	"orderID" : 2,
	"userID" : 2,
	"transaction date": "05/23/2023",
	"status" : "ordered",
	"total"	: 45
}