{
	"userID" : 1,
	"firstName" : "Evan",
	"lastName"	: "Tenorio",
	"email"		: "evanjoy.tenorio@gmail.com",
	"password"	: "12345",
	"isAdmin"	: false,
	"Enrollments": [
		{"courseID" : 1}, 
		{"courseID" : 2}]
}